
  <div class="carousel-inner">
    <div class="carousel-item active">
    <div class="row">
        <div class="col-md-4">
            <img src="villasantorini/slide1.jpg" class="d-block w-100" alt="...">
        </div>
        <div class="col-md-4">
            <img src="villasantorini/slide2.jpg" class="d-block w-100" alt="...">
        </div>
        <div class="col-md-4">
            <img src="villasantorini/slide3.jpg" class="d-block w-100" alt="...">
        </div>
      </div>
   <!-- w-100 -->
    </div>
    <div class="carousel-item">
    <div class="row">
          
      <div class="col-md-4">
          <img src="villasantorini/slide4.jpg" class="d-block w-100" alt="...">
      </div>
      <div class="col-md-4">
          <img src="villasantorini/slide5.jpg" class="d-block w-100" alt="...">
      </div>
      <div class="col-md-4">
          <img src="villasantorini/slide6.jpg" class="d-block w-100" alt="...">
      </div>
      </div>
     <!-- w-100  -->
    </div>
    <div class="carousel-item">
      <img src="img/villa_santorini/cozinha.jpg" class=" " alt="..." style="height:600px;width:100%;">
     <!-- w-100 d-block  -->
    </div>
    <div class="carousel-item">
      <img src="img/villa_santorini/varanda.jpg" class=" " alt="..." style="height:600px;width:100%;">
     <!-- w-100 d-block  -->
    </div>
    <div class="carousel-item">
      <img src="img/villa_santorini/fachada.jpg" class=" " alt="..." style="height:600px;width:100%;">
     <!-- w-100 d-block  -->
    </div>
  </div>
  <a class="carousel-control-prev" href="#carouselExampleIndicators" role="button" data-slide="prev">
    <span class="carousel-control-prev-icon" aria-hidden="true"></span>
    <span class="sr-only">Previous</span>
  </a>
  <a class="carousel-control-next" href="#carouselExampleIndicators" role="button" data-slide="next">
    <span class="carousel-control-next-icon" aria-hidden="true"></span>
    <span class="sr-only">Next</span>
  </a>
</div>
    
    
    <!-- <div class="col-md-3">
      <a href="ed_solar.php" rel="bookmark">
        <div class="card">
          <img src="img\solar\slide1.jpg" class="card-img-top" alt="...">
          <div class="card-body">
          <h2 class="card-title">Solar dos Montes</h2>
              <p class="card-text">Ed. Solar dos Montes - 3 qtos / 1 suite / 2 vagas - 100m2</p>
          </div>
          
        </div>
      </a>
    </div> -->

    <!-- <div class="col-md-3">
      <a href="ed_sidonio.php" rel="bookmark">
        <div class="card">
          <img src="img/sidonio/slidefachada.png" class="card-img-top" alt="...">
          <div class="card-body">
            <h2 class="card-title">Sidônio Maia</h2>
            <p class="card-text">Ed. Sidônio Maia - 2 qtos / 1 suite / 2 vagas -90m2</p>
          </div>
          
        </div>
      </a>
    </div> -->
<!-- <button type="button" class="btn btn-primary"> <a href="ed_jardim.php"> Detalhes</a></button> -->(Pronto - Unidades disponíveis)
 
 <!-- <button type="button" class="btn btn-primary"> <a href="ed_vilaggio_palmerias.php"> Detalhes </a></button> -->

   <!-- <button type="button" class="btn btn-primary"> <a href="ed_solar.php"> Detalhes </a></button> -->

            <!-- <button type="button" class="btn btn-primary"> <a href="ed_sidonio.php"> Detalhes </a></button> -->

                        <!-- <button type="button" class="btn btn-primary"> <a href="ed_parc_aquarius.php"> Detalhes</a></button> -->

                                    <!-- <button type="button" class="btn btn-primary"> <a href="ed_manhattan.php"> Detalhes </a></button> -->



                          <!-- <div class="row"> -->
                            <!-- <div class="col-md-5 d-flex flex-column text-center counter-box">
                              <div class="d-flex flex-row align-items-center justify-content-center">
                                <span style="font-size:50px;">+</span>
                                <span class=" counter">400</span>
                              </div>
                                Clientes Satisfeitos
                            </div> -->
                            <!-- <div class="col-md-4 d-flex flex-column text-center counter-box">
                              <span class=" counter">10</span>
                              Lançamentos para 2020 style="margin-top:70px;"
                            </div> -->
                          
                          <!-- </div> -->
                           <!-- (https://themes.getmotopress.com/aquentro/wp-content/uploads/sites/20/2018/07/testimonials_bg.jpg);
   -->
                        <!-- <div class="  d-flex flex-row align-items-center justify-content-center" style="margin-top:70px;">
                <div class="testimonial-father" style="width: 70%;">
                  <div class="photos">
                    <img src="https://themes.getmotopress.com/aquentro/wp-content/uploads/sites/20/2018/07/testimonial_03-150x150.jpg" alt="">
                  </div>
                  <div class="testimonial-entry-content">
                    <p>“I’m from Scandinavia and have been waiting for a trip to New York City for a long time. I’m so happy I managed to find Aquentro – it’s the best place for a long-term stay! These guys know how to make you feel like a celebrity!”</p>
                    <span class="testimonial-entry-title">― Byron Branks</span>
                  </div>
                </div>
              </div>
                  <div class="d-flex flex-row justify-content-center">
                        <ul class="slick-dots" style="display: flex;" role="tablist">
                          <li class="slick-active active" role="presentation">
                            <button type="button" role="tab" id="slick-slide-control10" aria-controls="slick-slide10" aria-label="1 of 3" tabindex="0" aria-selected="true">1</button>
                          </li>
                          <li role="presentation" class="">
                            <button type="button" role="tab" id="slick-slide-control11" aria-controls="slick-slide11" aria-label="2 of 3" tabindex="-1">2</button>
                          </li>
                          <li role="presentation" class="">
                            <button type="button" role="tab" id="slick-slide-control12" aria-controls="slick-slide12" aria-label="3 of 3" tabindex="-1">3</button>
                          </li>
                        </ul>
                  </div> -->

                    <div class="col-md-10 " style="margin-left: 20px;margin-top:20px;margin-bottom:20px; padding-left:40px;">
        <form class="">
        <!-- H2 formulario -->
        <div class="text-center" style="padding-bottom:20px;">
            <h2 class="" style="padding-bottom:20px;"> Envie suas duvidas aqui</h2>
            <img class="text-center" src="img/divider_line_big.svg">
        </div>
        <!-- Text area -->
        <div class="form-group" style="padding-bottom:20px;">
            <label for="exampleFormControlTextarea1" style="font-weight:bold; color: #475764; font-size:12px;">Escreva aqui</label>
            <textarea class="form-control" id="exampleFormControlTextarea1" rows="3"></textarea>
        </div>
        <!-- nome -->
        <div class="form-group" style="padding-bottom:20px;">
            <label for="exampleInputEmail1" style="font-weight:bold; color: #475764; font-size:12px;">Nome (obrigatório)</label>
            <input type="name" class="form-control" id="exampleInputName" aria-describedby="emailHelp">
            <small id="nameHelp" class="form-text text-muted" style="font-size:12px;" >Digite o seu nome aqui</small>
        </div>
        <!-- email -->
        <div class="form-group" style="padding-bottom:20px;">
            <label for="exampleInputEmail1" style="font-weight:bold; color: #475764; font-size:12px;">Email (obrigatório)</label>
            <input type="email" class="form-control" id="exampleInputEmail" aria-describedby="emailHelp">
            <small id="emailHelp" class="form-text text-muted" style="font-size:12px;" >Digite o seu nome aqui</small>
        </div>
        
            <button type="submit" class="btn btn-primary" style="font-weight:bold; border-radius:22px;">Clique aqui</button>
            </form>

        </div>

        
<!-- Começo Parc Aquarius -->
<!-- imagem carousel -->
<div class="vilaggio">
<div id="carouselExampleIndicators" class="carousel slide " data-ride="carousel">
  <ol class="carousel-indicators">
    <li data-target="#carouselExampleIndicators" data-slide-to="0" class="active"></li>
    <li data-target="#carouselExampleIndicators" data-slide-to="1"></li>
    <li data-target="#carouselExampleIndicators" data-slide-to="2"></li>
    <li data-target="#carouselExampleIndicators" data-slide-to="3"></li>
    <li data-target="#carouselExampleIndicators" data-slide-to="
    4"></li>
  </ol>
  <div class="carousel-inner">
    <div class="carousel-item active">
      <img src="img/vilagio_palmeiras/suite.jpg" class=" " alt="..." style="margin-left:290px;height:600px;width:auto;">
   <!-- w-100 -->
    </div>
    <div class="carousel-item">
      <img src="img/vilagio_palmeiras/sala.jpg" class=" " alt="..." style="margin-left:290px;height:600px;width:auto;">
     <!-- w-100  -->
    </div>
    <div class="carousel-item">
      <img src="img/vilagio_palmeiras/terraco.jpg" class=" " alt="..." style="margin-left:290px;height:600px;width:auto;">
     <!-- w-100 d-block  -->
    </div>
    <div class="carousel-item">
      <img src="img/vilagio_palmeiras/sala2.jpg" class=" " alt="..." style="margin-left:290px;height:600px;width:auto;">
     <!-- w-100 d-block  -->
    </div>
    <div class="carousel-item">
      <img src="img/vilagio_palmeiras/cozinha.jpg" class=" " alt="..." style="margin-left:290px;height:600px;width:auto;">
     <!-- w-100 d-block  -->
    </div>
  </div>
  <a class="carousel-control-prev" href="#carouselExampleIndicators" role="button" data-slide="prev">
    <span class="carousel-control-prev-icon" aria-hidden="true"></span>
    <span class="sr-only">Previous</span>
  </a>
  <a class="carousel-control-next" href="#carouselExampleIndicators" role="button" data-slide="next">
    <span class="carousel-control-next-icon" aria-hidden="true"></span>
    <span class="sr-only">Next</span>
  </a>
</div>


    <!-- fim imagem carousel -->

    <div class="col-md-12 row" style="margin-top:40px;">
    <div class="col-md-2"></div>    
    <!--começo texto -->
    <div class="col-md-6" style="padding-right:40px;">
    <div class="text-center" style="padding-top:20px;padding-bottom:20px;">
            <h2 class="" style="padding-bottom:20px;">Ed. Vilaggio Palmerias - Pronto para morar</h2>
            <img class="text-center" src="img/divider_line_big.svg">
        </div>
        <P style="padding-bottom:20px; margin-top:10px;">We’d love to hear from you – send us any question related to booking our rental properties. You can book a property online on this website or call us to reserve a property for you.</P>

        <p style="padding-bottom:20px; margin-top:10px;">
        If you got a question, reach out via the contact form or phone and a member of our team will help you get started easily.</P>
        <p></p>
        <h6 style="color: #475764;">Office Hours:</h6>
        <p>We are open from 10:00 am to 8:00 pm except Saturdays and Sundays.</p>
    </div>
    <!--fim texto  -->
    <!-- form -->
    <div class="col-md-4" style="margin-left:10px; margin-bottom:50px; margin-top:1px;">
      
    </div>
    <!-- fim form -->
    </div>
    <!-- fim conteudo  -->


    <!-- ALBUM -->
    <section class="p-0 pt-5">
      <div class="container-fluid">
        <!-- ALBÚM -->
        <div class="col-md-12 text-center rent" style=" padding-right:60px;"> 
          <h2>Conheça Nossos Empreendimentos</h2>
          <img src="img/divider_line_big.svg">
          <div class="paragraph d-flex flex-row justify-content-center">
            <p>
              <!--Apartment amenities include a broadband internet access, satellite, hardwood floor, fireplace and more. You’ll be impressed with oversized windows and fantastic terraces. Services for short and long stays. -->
            </p>
          </div>
          <!-- fim col-md-12 -->
          <div class="col-sm-12 col-md-12">
            <!-- fim col-md0 -->
            <div class="d-flex flex-row flex-wrap justify-content-center">
              <div class="col-sm-12 col-md-8 pl-5 pr-0">
                <div style="width: 100%;height:100%;">
                  <!-- <img class="img-fluid" src="http://via.placeholder.com/1000x600" alt=""> -->
                  <img class="img-fluid" src="img/vilagio_palmeiras/planta1.jpg" style="width:100%;height:480px;max-height:475px;">
                </div>
              </div> 
              <div class="col-sm-12 col-md-4 pl-1 pr-0"> 
                <div class="col-sm-12 col-md-12 pl-0">
                  <div style="width: 100%;height:100%;">
                    <!-- <img class="img-fluid" src="http://via.placeholder.com/400x330" alt="" margin-right:105px; height:200px; ;> -->
                    <img class="img-fluid" src="img/vilagio_palmeiras/lazer.jpg" alt="" style="width:100%;height:235px;">
                  </div>
                </div>
                <div style="margin-top:4px; "></div>
                <!-- <div class="col-md-12 col_style_3 back-image-2"> -->
                <div class="col-md-12 pl-0">
                  <div style="width: 100%;height:100%;">
                    <img class="img-fluid" src="img/vilagio_palmeiras/ALAS2.jpg" alt="" style="width:100%;height:235px;">
                  </div>
                    <!-- <img class="img-fluid" src="http://via.placeholder.com/400x330" alt="" margin-right:105px; height:200px; ;> -->
                    <!-- <img class="img-fluid" src="http://via.placeholder.com/400x330" alt="" margin-right:105px; height:255px; padding-left:0px;> -->
                    <!-- <img class="image_style_3" src="img/predio.png"> -->
                </div>
                
              </div>
              <!-- fim d-flex -->
            </div> 
          </div>

          <div class="col-sm-12 col-md-12 mt-1">
            <!-- row -->
            <div class="d-flex flex-row flex-wrap justify-content-center">
              <div class="col-sm-12 col-lg-4 pl-5 pr-0"><img class="img-fluid" src="img/vilagio_palmeiras/planta2.jpg" alt="" style="width: 100%; height:240px;" ></div>
              <div class="col-sm-12 col-lg-4 pr-0 pl-1"><img class="img-fluid" src="img/vilagio_palmeiras/planta3.jpg" alt="" style="width: 100%; height:240px;"></div>
              <div class="col-sm-12 col-lg-4 pl-1"><img class="img-fluid" src="img/vilagio_palmeiras/garagem.jpg" alt="" style="width: 100%; height:240px;" ></div>
            </div>
          <!-- fim col-md-12 -->
          </div>
        </div>
      </div>
    </section>
    <!-- FIM ALBUM -->
</div>
<!-- fim Parc Aquarius -->

<!-- Começo Mirante -->
<!-- imagem carousel -->
<div class="vilaggio">
<div id="carouselExampleIndicators" class="carousel slide " data-ride="carousel">
  <ol class="carousel-indicators">
    <li data-target="#carouselExampleIndicators" data-slide-to="0" class="active"></li>
    <li data-target="#carouselExampleIndicators" data-slide-to="1"></li>
    <li data-target="#carouselExampleIndicators" data-slide-to="2"></li>
    <li data-target="#carouselExampleIndicators" data-slide-to="3"></li>
    <li data-target="#carouselExampleIndicators" data-slide-to="4"></li>
  </ol>
  <div class="carousel-inner">
    <div class="carousel-item active">
      <img src="img/vilagio_palmeiras/suite.jpg" class=" " alt="..." style="margin-left:290px;height:600px;width:auto;">
   <!-- w-100 -->
    </div>
    <div class="carousel-item">
      <img src="img/vilagio_palmeiras/sala.jpg" class=" " alt="..." style="margin-left:290px;height:600px;width:auto;">
     <!-- w-100  -->
    </div>
    <div class="carousel-item">
      <img src="img/vilagio_palmeiras/terraco.jpg" class=" " alt="..." style="margin-left:290px;height:600px;width:auto;">
     <!-- w-100 d-block  -->
    </div>
    <div class="carousel-item">
      <img src="img/vilagio_palmeiras/sala2.jpg" class=" " alt="..." style="margin-left:290px;height:600px;width:auto;">
     <!-- w-100 d-block  -->
    </div>
    <div class="carousel-item">
      <img src="img/vilagio_palmeiras/cozinha.jpg" class=" " alt="..." style="margin-left:290px;height:600px;width:auto;">
     <!-- w-100 d-block  -->
    </div>
  </div>
  <a class="carousel-control-prev" href="#carouselExampleIndicators" role="button" data-slide="prev">
    <span class="carousel-control-prev-icon" aria-hidden="true"></span>
    <span class="sr-only">Previous</span>
  </a>
  <a class="carousel-control-next" href="#carouselExampleIndicators" role="button" data-slide="next">
    <span class="carousel-control-next-icon" aria-hidden="true"></span>
    <span class="sr-only">Next</span>
  </a>
</div>


    <!-- fim imagem carousel -->

    <div class="col-md-12 row" style="margin-top:40px;">
    <div class="col-md-2"></div>    
    <!--começo texto -->
    <div class="col-md-6" style="padding-right:40px;">
    <div class="text-center" style="padding-top:20px;padding-bottom:20px;">
            <h2 class="" style="padding-bottom:20px;">Ed. Vilaggio Palmerias - Pronto para morar</h2>
            <img class="text-center" src="img/divider_line_big.svg">
        </div>
        <P style="padding-bottom:20px; margin-top:10px;">We’d love to hear from you – send us any question related to booking our rental properties. You can book a property online on this website or call us to reserve a property for you.</P>

        <p style="padding-bottom:20px; margin-top:10px;">
        If you got a question, reach out via the contact form or phone and a member of our team will help you get started easily.</P>
        <p></p>
        <h6 style="color: #475764;">Office Hours:</h6>
        <p>We are open from 10:00 am to 8:00 pm except Saturdays and Sundays.</p>
    </div>
    <!--fim texto  -->
    <!-- form -->
    <div class="col-md-4" style="margin-left:10px; margin-bottom:50px; margin-top:1px;">
      
    </div>
    <!-- fim form -->
    </div>
    <!-- fim conteudo  -->


    <!-- ALBUM -->
    <section class="p-0 pt-5">
      <div class="container-fluid">
        <!-- ALBÚM -->
        <div class="col-md-12 text-center rent" style=" padding-right:60px;"> 
          <h2>Conheça Nossos Empreendimentos</h2>
          <img src="img/divider_line_big.svg">
          <div class="paragraph d-flex flex-row justify-content-center">
            <p>
              <!--Apartment amenities include a broadband internet access, satellite, hardwood floor, fireplace and more. You’ll be impressed with oversized windows and fantastic terraces. Services for short and long stays. -->
            </p>
          </div>
          <!-- fim col-md-12 -->
          <div class="col-sm-12 col-md-12">
            <!-- fim col-md0 -->
            <div class="d-flex flex-row flex-wrap justify-content-center">
              <div class="col-sm-12 col-md-8 pl-5 pr-0">
                <div style="width: 100%;height:100%;">
                  <!-- <img class="img-fluid" src="http://via.placeholder.com/1000x600" alt=""> -->
                  <img class="img-fluid" src="img/vilagio_palmeiras/planta1.jpg" style="width:100%;height:480px;max-height:475px;">
                </div>
              </div> 
              <div class="col-sm-12 col-md-4 pl-1 pr-0"> 
                <div class="col-sm-12 col-md-12 pl-0">
                  <div style="width: 100%;height:100%;">
                    <!-- <img class="img-fluid" src="http://via.placeholder.com/400x330" alt="" margin-right:105px; height:200px; ;> -->
                    <img class="img-fluid" src="img/vilagio_palmeiras/lazer.jpg" alt="" style="width:100%;height:235px;">
                  </div>
                </div>
                <div style="margin-top:4px; "></div>
                <!-- <div class="col-md-12 col_style_3 back-image-2"> -->
                <div class="col-md-12 pl-0">
                  <div style="width: 100%;height:100%;">
                    <img class="img-fluid" src="img/vilagio_palmeiras/ALAS2.jpg" alt="" style="width:100%;height:235px;">
                  </div>
                    <!-- <img class="img-fluid" src="http://via.placeholder.com/400x330" alt="" margin-right:105px; height:200px; ;> -->
                    <!-- <img class="img-fluid" src="http://via.placeholder.com/400x330" alt="" margin-right:105px; height:255px; padding-left:0px;> -->
                    <!-- <img class="image_style_3" src="img/predio.png"> -->
                </div>
                
              </div>
              <!-- fim d-flex -->
            </div> 
          </div>

          <div class="col-sm-12 col-md-12 mt-1">
            <!-- row -->
            <div class="d-flex flex-row flex-wrap justify-content-center">
              <div class="col-sm-12 col-lg-4 pl-5 pr-0"><img class="img-fluid" src="img/vilagio_palmeiras/planta2.jpg" alt="" style="width: 100%; height:240px;" ></div>
              <div class="col-sm-12 col-lg-4 pr-0 pl-1"><img class="img-fluid" src="img/vilagio_palmeiras/planta3.jpg" alt="" style="width: 100%; height:240px;"></div>
              <div class="col-sm-12 col-lg-4 pl-1"><img class="img-fluid" src="img/vilagio_palmeiras/garagem.jpg" alt="" style="width: 100%; height:240px;" ></div>
            </div>
          <!-- fim col-md-12 -->
          </div>
        </div>
      </div>
    </section>
    <!-- FIM ALBUM -->
</div>
<!-- fim Mirante -->




<!-- imagem carousel -->
<div class="edificio" style=" margin-top: 100px !important;
  margin-bottom: 100px !important;">
<div id="carouselExampleIndicators" class="carousel slide " data-ride="carousel">
  <ol class="carousel-indicators">
    <li data-target="#carouselExampleIndicators" data-slide-to="0" class="active"></li>
    <li data-target="#carouselExampleIndicators" data-slide-to="1"></li>
    <li data-target="#carouselExampleIndicators" data-slide-to="2"></li>
    <li data-target="#carouselExampleIndicators" data-slide-to="3"></li>
    <li data-target="#carouselExampleIndicators" data-slide-to="
    4"></li>
  </ol>
  <div class="carousel-inner">
    <div class="carousel-item active">
      <img src="img/vilagio_palmeiras/suite.jpg" class=" " alt="..." style="margin-left:290px;height:600px;width:auto;">
   <!-- w-100 -->
    </div>
    <div class="carousel-item">
      <img src="img/vilagio_palmeiras/sala.jpg" class=" " alt="..." style="margin-left:290px;height:600px;width:auto;">
     <!-- w-100  -->
    </div>
    <div class="carousel-item">
      <img src="img/vilagio_palmeiras/terraco.jpg" class=" " alt="..." style="margin-left:290px;height:600px;width:auto;">
     <!-- w-100 d-block  -->
    </div>
    <div class="carousel-item">
      <img src="img/vilagio_palmeiras/sala2.jpg" class=" " alt="..." style="margin-left:290px;height:600px;width:auto;">
     <!-- w-100 d-block  -->
    </div>
    <div class="carousel-item">
      <img src="img/vilagio_palmeiras/cozinha.jpg" class=" " alt="..." style="margin-left:290px;height:600px;width:auto;">
     <!-- w-100 d-block  -->
    </div>
  </div>
  <a class="carousel-control-prev" href="#carouselExampleIndicators" role="button" data-slide="prev">
    <span class="carousel-control-prev-icon" aria-hidden="true"></span>
    <span class="sr-only">Previous</span>
  </a>
  <a class="carousel-control-next" href="#carouselExampleIndicators" role="button" data-slide="next">
    <span class="carousel-control-next-icon" aria-hidden="true"></span>
    <span class="sr-only">Next</span>
  </a>
</div>


    <!-- fim imagem carousel -->

    <div class="col-md-12 row" style="margin-top:40px;">
    <div class="col-md-2"></div>    
    <!--começo texto -->
    <div class="col-md-6" style="padding-right:40px;">
    <div class="text-center" style="padding-top:20px;padding-bottom:20px;">
            <h2 class="" style="padding-bottom:20px;">Ed. Vilaggio Palmerias - Pronto para morar</h2>
            <img class="text-center" src="img/divider_line_big.svg">
        </div>
        <P style="padding-bottom:20px; margin-top:10px;">Ed. Villaggio Palmeiras
        </P>

        <ul>
        <li style=" margin-top:10px;">
        57m2</li> 
        <li>2 qtos / 1 suite / 2 vagas</li>
        <li>Salao de festas / espaco gourmet / salso de jogos / espaco</li>     
        <li>kids / academia</li>       
        <li>Porcelanato / granito</li>  
        <li>Elevador</li>
        <li class="padding-bottom:20px;"> Agua e gas individuais</li>
        </ul>
        <p  style="color: #475764;">- Vilaggio Palmeiras (pronto - unidades disponíveis)</P>
        <!-- <h6 >Office Hours:</h6> -->
        
    </div>
    <!--fim texto  -->
    <!-- form -->
    <div class="col-md-4" style="margin-left:10px; margin-bottom:50px; margin-top:1px;">
      
    </div>
    <!-- fim form -->
    </div>
    <!-- fim conteudo  -->


    <!-- ALBUM -->
    <!-- <section class="p-0 pt-5">
      <div class="container-fluid">
     
        <div class="col-md-12 text-center rent" style=" padding-right:60px;"> 
          <h2>Conheça Nossos Empreendimentos</h2>
          <img src="img/divider_line_big.svg">
          <div class="paragraph d-flex flex-row justify-content-center">
            <p>
           
            </p>
          </div>
         
          <div class="col-sm-12 col-md-12">
     
            <div class="d-flex flex-row flex-wrap justify-content-center">
              <div class="col-sm-12 col-md-8 pl-5 pr-0">
                <div style="width: 100%;height:100%;">
               
                  <img class="img-fluid" src="img/vilagio_palmeiras/planta1.jpg" style="width:100%;height:480px;max-height:475px;">
                </div>
              </div> 
              <div class="col-sm-12 col-md-4 pl-1 pr-0"> 
                <div class="col-sm-12 col-md-12 pl-0">
                  <div style="width: 100%;height:100%;">
                
                    <img class="img-fluid" src="img/vilagio_palmeiras/lazer.jpg" alt="" style="width:100%;height:235px;">
                  </div>
                </div>
                <div style="margin-top:4px; "></div>
             
                <div class="col-md-12 pl-0">
                  <div style="width: 100%;height:100%;">
                    <img class="img-fluid" src="img/vilagio_palmeiras/ALAS2.jpg" alt="" style="width:100%;height:235px;">
                  </div>
                  
                </div>
                
              </div>
              
            </div> 
          </div>

          <div class="col-sm-12 col-md-12 mt-1">
         
            <div class="d-flex flex-row flex-wrap justify-content-center">
              <div class="col-sm-12 col-lg-4 pl-5 pr-0"><img class="img-fluid" src="img/vilagio_palmeiras/planta2.jpg" alt="" style="width: 100%; height:240px;" ></div>
              <div class="col-sm-12 col-lg-4 pr-0 pl-1"><img class="img-fluid" src="img/vilagio_palmeiras/planta3.jpg" alt="" style="width: 100%; height:240px;"></div>
              <div class="col-sm-12 col-lg-4 pl-1"><img class="img-fluid" src="img/vilagio_palmeiras/garagem.jpg" alt="" style="width: 100%; height:240px;" ></div>
            </div>
        
          </div>
        </div>
      </div>
    </section> -->
    <!-- FIM ALBUM -->
</div>
<!-- fim vilaggio -->

<!-- Começo Solar -->
<!-- imagem carousel -->
<div class="edificio" style=" margin-top: 100px !important;
  margin-bottom: 100px !important;">
<div id="carouselExampleIndicators" class="carousel slide " data-ride="carousel">
  <ol class="carousel-indicators">
    <li data-target="#carouselExampleIndicators" data-slide-to="0" class="active"></li>
    <li data-target="#carouselExampleIndicators" data-slide-to="1"></li>
    <li data-target="#carouselExampleIndicators" data-slide-to="2"></li>
    <li data-target="#carouselExampleIndicators" data-slide-to="3"></li>
    <li data-target="#carouselExampleIndicators" data-slide-to="4"></li>
  </ol>
  <div class="carousel-inner">
    <div class="carousel-item active">
      <img src="img/solar/slide1.jpg" class=" " alt="..." style="margin-left:290px;height:600px;width:auto;">
   <!-- w-100 -->
    </div>
    <div class="carousel-item">
      <img src="img/solar/slide2.jpg" class=" " alt="..." style="margin-left:290px;height:600px;width:auto;">
     <!-- w-100  -->
    </div>
    <div class="carousel-item">
      <img src="img/solar/slide3.jpg" class=" " alt="..." style="margin-left:290px;height:600px;width:auto;">
     <!-- w-100 d-block  -->
    </div>
    <div class="carousel-item">
      <img src="img/solar/slide4.jpg" class=" " alt="..." style="margin-left:290px;height:600px;width:auto;">
     <!-- w-100 d-block  -->
    </div>
    <div class="carousel-item">
      <img src="img/solar/slide5.jpg" class=" " alt="..." style="margin-left:290px;height:600px;width:auto;">
     <!-- w-100 d-block  -->
    </div>
  </div>
  <a class="carousel-control-prev" href="#carouselExampleIndicators" role="button" data-slide="prev">
    <span class="carousel-control-prev-icon" aria-hidden="true"></span>
    <span class="sr-only">Previous</span>
  </a>
  <a class="carousel-control-next" href="#carouselExampleIndicators" role="button" data-slide="next">
    <span class="carousel-control-next-icon" aria-hidden="true"></span>
    <span class="sr-only">Next</span>
  </a>
</div>


    <!-- fim imagem carousel -->

    <div class="col-md-12 row" style="margin-top:40px;">
    <div class="col-md-2"></div>    
    <!--começo texto -->
    <div class="col-md-6" style="padding-right:40px;">
    <div class="text-center" style="padding-top:20px;padding-bottom:20px;">
            <h2 class="" style="padding-bottom:20px;">Ed. Solar - Pronto para morar</h2>
            <img class="text-center" src="img/divider_line_big.svg">
        </div>
        <P style="padding-bottom:20px; margin-top:10px;">Ed. Solar dos Montes</P>

        <ul>
        <li style=" margin-top:10px;">
        100m2 </li>
        <li>3 qtos / 1 suite / 2 vagas</li>  
        <li>Lazer completo</li>  
        <li>Elevador</li>  
        <li class="padding-bottom:20px;">  Agua e gas individuais 
        </li></ul>
        <!-- <h6 style="color: #475764;">Office Hours:</h6> -->
        <p style="color: #475764;">- Solar dos Montes (pronto - 100% vendido)</p>
    </div>
    <!--fim texto  -->
    <!-- form -->
    <div class="col-md-4" style="margin-left:10px; margin-bottom:50px; margin-top:1px;">
      
    </div>
    <!-- fim form -->
    </div>
    <!-- fim conteudo  -->


    <!-- ALBUM -->
    <!-- <section class="p-0 pt-5">
      <div class="container-fluid">
     
        <div class="col-md-12 text-center rent" style=" padding-right:60px;"> 
          <h2>Conheça Nossos Empreendimentos</h2>
          <img src="img/divider_line_big.svg">
          <div class="paragraph d-flex flex-row justify-content-center">
            <p>
           
            </p>
          </div>
   
          <div class="col-sm-12 col-md-12">
         
            <div class="d-flex flex-row flex-wrap justify-content-center">
              <div class="col-sm-12 col-md-8 pl-5 pr-0">
                <div style="width: 100%;height:100%;">
               
                  <img class="img-fluid" src="img/solar/planta1.jpg" style="width:100%;height:480px;max-height:475px;">
                </div>
              </div> 
              <div class="col-sm-12 col-md-4 pl-1 pr-0"> 
                <div class="col-sm-12 col-md-12 pl-0">
                  <div style="width: 100%;height:100%;">
                   
                    <img class="img-fluid" src="img/solar/lazer.jpg" alt="" style="width:100%;height:235px;">
                  </div>
                </div>
                <div style="margin-top:4px; "></div>
             
                <div class="col-md-12 pl-0">
                  <div style="width: 100%;height:100%;">
                    <img class="img-fluid" src="img/solar/ALAS2.jpg" alt="" style="width:100%;height:235px;">
                  </div>
                  
                </div>
                
              </div>
           
            </div> 
          </div>

          <div class="col-sm-12 col-md-12 mt-1">
        
            <div class="d-flex flex-row flex-wrap justify-content-center">
              <div class="col-sm-12 col-lg-4 pl-5 pr-0"><img class="img-fluid" src="img/solar/planta2.jpg" alt="" style="width: 100%; height:240px;" ></div>
              <div class="col-sm-12 col-lg-4 pr-0 pl-1"><img class="img-fluid" src="img/solar/planta3.jpg" alt="" style="width: 100%; height:240px;"></div>
              <div class="col-sm-12 col-lg-4 pl-1"><img class="img-fluid" src="img/solar/garagem.jpg" alt="" style="width: 100%; height:240px;" ></div>
            </div>
        
          </div>
        </div>
      </div>
    </section> -->

</div>
<!-- fim Solar -->  

<!-- Começo Sidonio -->
<!-- imagem Sidonio -->
<div class="edificio" style=" margin-top: 100px !important;
  margin-bottom: 100px !important;">
<div id="carouselExampleIndicators" class="carousel slide " data-ride="carousel">
  <ol class="carousel-indicators">
    <li data-target="#carouselExampleIndicators" data-slide-to="0" class="active"></li>
    <li data-target="#carouselExampleIndicators" data-slide-to="1"></li>
    <li data-target="#carouselExampleIndicators" data-slide-to="2"></li>
    <li data-target="#carouselExampleIndicators" data-slide-to="3"></li>
    <li data-target="#carouselExampleIndicators" data-slide-to="4"></li>
  </ol>
  <div class="carousel-inner">
    <div class="carousel-item active">
      <img src="img/sidonio/slide1.jpg" class=" " alt="..." style="margin-left:290px;height:600px;width:auto;">
   <!-- w-100 -->
    </div>
    <div class="carousel-item">
      <img src="img/sidonio/slide2.jpg" class=" " alt="..." style="margin-left:290px;height:600px;width:auto;">
     <!-- w-100  -->
    </div>
    <div class="carousel-item">
      <img src="img/sidonio/slide3.jpg" class=" " alt="..." style="margin-left:290px;height:600px;width:auto;">
     <!-- w-100 d-block  -->
    </div>
    <div class="carousel-item">
      <img src="img/sidonio/slide4.jpg" class=" " alt="..." style="margin-left:290px;height:600px;width:auto;">
     <!-- w-100 d-block  -->
    </div>
    <div class="carousel-item">
      <img src="img/sidonio/slide5.jpg" class=" " alt="..." style="margin-left:290px;height:600px;width:auto;">
     <!-- w-100 d-block  -->
    </div>
  </div>
  <a class="carousel-control-prev" href="#carouselExampleIndicators" role="button" data-slide="prev">
    <span class="carousel-control-prev-icon" aria-hidden="true"></span>
    <span class="sr-only">Previous</span>
  </a>
  <a class="carousel-control-next" href="#carouselExampleIndicators" role="button" data-slide="next">
    <span class="carousel-control-next-icon" aria-hidden="true"></span>
    <span class="sr-only">Next</span>
  </a>
</div>


    <!-- fim imagem carousel -->

    <div class="col-md-12 row" style="margin-top:40px;">
    <div class="col-md-2"></div>    
    <!--começo texto -->
    <div class="col-md-6" style="padding-right:40px;">
    <div class="text-center" style="padding-top:20px;padding-bottom:20px;">
            <h2 class="" style="padding-bottom:20px;">Ed. Sidonio - Pronto para morar</h2>
            <img class="text-center" src="img/divider_line_big.svg">
        </div>
        <P style="padding-bottom:20px; margin-top:10px;">Ed. Sidônio Maia</P>
        <ul>
        <li style=" margin-top:10px;">
        90m2</li> 
        <li>2 qtos / 1 suite / 2 vagas</li>  
        <li>Salao de festas / espaco gourmet / sauna / academia / Spa</li> 
        <li>Elevador</li>  
        <li class="padding-bottom:20px;">Agua e gas individuais</li>
        </ul>
        <!-- <h6 >Office Hours:</h6> -->
        <p style="color: #475764;">- Sidônio Maia (pronto)</p>
    </div>
    <!--fim texto  -->
    <!-- form -->
    <div class="col-md-4" style="margin-left:10px; margin-bottom:50px; margin-top:1px;">
      
    </div>
    <!-- fim form -->
    </div>
    <!-- fim conteudo  -->


    <!-- ALBUM -->
    <!-- <section class="p-0 pt-5">
      <div class="container-fluid">
       
        <div class="col-md-12 text-center rent" style=" padding-right:60px;"> 
          <h2>Conheça Nossos Empreendimentos</h2>
          <img src="img/divider_line_big.svg">
          <div class="paragraph d-flex flex-row justify-content-center">
            <p>
          
            </p>
          </div>
    
          <div class="col-sm-12 col-md-12">
        
            <div class="d-flex flex-row flex-wrap justify-content-center">
              <div class="col-sm-12 col-md-8 pl-5 pr-0">
                <div style="width: 100%;height:100%;">
      
                  <img class="img-fluid" src="img/sidonio/planta1.jpg" style="width:100%;height:480px;max-height:475px;">
                </div>
              </div> 
              <div class="col-sm-12 col-md-4 pl-1 pr-0"> 
                <div class="col-sm-12 col-md-12 pl-0">
                  <div style="width: 100%;height:100%;">
               
                    <img class="img-fluid" src="img/sidonio/lazer.jpg" alt="" style="width:100%;height:235px;">
                  </div>
                </div>
                <div style="margin-top:4px; "></div>
           
                <div class="col-md-12 pl-0">
                  <div style="width: 100%;height:100%;">
                    <img class="img-fluid" src="img/sidonio/ALAS2.jpg" alt="" style="width:100%;height:235px;">
                  </div>
                
                </div>
                
              </div>
          
            </div> 
          </div>

          <div class="col-sm-12 col-md-12 mt-1">
           
            <div class="d-flex flex-row flex-wrap justify-content-center">
              <div class="col-sm-12 col-lg-4 pl-5 pr-0"><img class="img-fluid" src="img/sidonio/planta2.jpg" alt="" style="width: 100%; height:240px;" ></div>
              <div class="col-sm-12 col-lg-4 pr-0 pl-1"><img class="img-fluid" src="img/sidonio/planta3.jpg" alt="" style="width: 100%; height:240px;"></div>
              <div class="col-sm-12 col-lg-4 pl-1"><img class="img-fluid" src="img/sidonio/garagem.jpg" alt="" style="width: 100%; height:240px;" ></div>
            </div>
         
          </div>
        </div>
      </div>
    </section> -->
    <!-- FIM ALBUM -->
</div>
<!-- fim Sidonio -->

<!-- Começo Parc Aquarius -->
<!-- imagem carousel -->
<div class="edificio" style=" margin-top: 100px !important;
  margin-bottom: 100px !important;">
<div id="carouselExampleIndicators" class="carousel slide " data-ride="carousel">
  <ol class="carousel-indicators">
    <li data-target="#carouselExampleIndicators" data-slide-to="0" class="active"></li>
    <li data-target="#carouselExampleIndicators" data-slide-to="1"></li>
    <li data-target="#carouselExampleIndicators" data-slide-to="2"></li>
    <li data-target="#carouselExampleIndicators" data-slide-to="3"></li>
    <li data-target="#carouselExampleIndicators" data-slide-to="
    4"></li>
  </ol>
  <div class="carousel-inner">
    <div class="carousel-item active">
      <img src="img/parcaquarius/slide1.jpg" class=" " alt="..." style="margin-left:290px;height:600px;width:auto;">
   <!-- w-100 -->
    </div>
    <div class="carousel-item">
      <img src="img/parcaquarius/slide2.jpg" class=" " alt="..." style="margin-left:290px;height:600px;width:auto;">
     <!-- w-100  -->
    </div>
    <div class="carousel-item">
      <img src="img/parcaquarius/slide3.jpg" class=" " alt="..." style="margin-left:290px;height:600px;width:auto;">
     <!-- w-100 d-block  -->
    </div>
    <div class="carousel-item">
      <img src="img/parcaquarius/slide4.jpg" class=" " alt="..." style="margin-left:290px;height:600px;width:auto;">
     <!-- w-100 d-block  -->
    </div>
    <div class="carousel-item">
      <img src="img/parcaquarius/slide5.jpg" class=" " alt="..." style="margin-left:290px;height:600px;width:auto;">
     <!-- w-100 d-block  -->
    </div>
  </div>
  <a class="carousel-control-prev" href="#carouselExampleIndicators" role="button" data-slide="prev">
    <span class="carousel-control-prev-icon" aria-hidden="true"></span>
    <span class="sr-only">Previous</span>
  </a>
  <a class="carousel-control-next" href="#carouselExampleIndicators" role="button" data-slide="next">
    <span class="carousel-control-next-icon" aria-hidden="true"></span>
    <span class="sr-only">Next</span>
  </a>
</div>


    <!-- fim imagem carousel -->

    <div class="col-md-12 row" style="margin-top:40px;">
    <div class="col-md-2"></div>    
    <!--começo texto -->
    <div class="col-md-6" style="padding-right:40px;">
    <div class="text-center" style="padding-top:20px;padding-bottom:20px;">
            <h2 class="" style="padding-bottom:20px;">Ed. Parc Aquarius - Pronto para morar</h2>
            <img class="text-center" src="img/divider_line_big.svg">
        </div>
        <P style="padding-bottom:20px; margin-top:10px;">Ed. Parc Aquarius
        </P>
        
        <ul>
        <li style=" margin-top:10px;">
        77 e 84m2</li>
        <li>3 qtos / 1 suite / 2 vagas</li>
        <li>Salao de festas</li>
        <li>Espaço gourmet</li>
        <li>Elevador</li>
        <li class="padding-bottom:20px;">Agua e gas individuais
        </li></ul>
        
        <!-- <h6 >Office Hours:</h6> -->
        <p style="color: #475764;">- Parque aquárius (pronto - 100% vendido)</p>
    </div>
    <!--fim texto  -->
    <!-- form -->
    <div class="col-md-4" style="margin-left:10px; margin-bottom:50px; margin-top:1px;">
      
    </div>
    <!-- fim form -->
    </div>
    <!-- fim conteudo  -->


<!--   
    <section class="p-0 pt-5">
      <div class="container-fluid">
      
        <div class="col-md-12 text-center rent" style=" padding-right:60px;"> 
          <h2>Conheça Nossos Empreendimentos</h2>
          <img src="img/divider_line_big.svg">
          <div class="paragraph d-flex flex-row justify-content-center">
            <p>
          
            </p>
          </div>
          <
          <div class="col-sm-12 col-md-12">
           
            <div class="d-flex flex-row flex-wrap justify-content-center">
              <div class="col-sm-12 col-md-8 pl-5 pr-0">
                <div style="width: 100%;height:100%;">
                  
                  <img class="img-fluid" src="img/parcaquarius/planta1.jpg" style="width:100%;height:480px;max-height:475px;">
                </div>
              </div> 
              <div class="col-sm-12 col-md-4 pl-1 pr-0"> 
                <div class="col-sm-12 col-md-12 pl-0">
                  <div style="width: 100%;height:100%;">
                   
                    <img class="img-fluid" src="img/parcaquarius/lazer.jpg" alt="" style="width:100%;height:235px;">
                  </div>
                </div>
                <div style="margin-top:4px; "></div>
              
                <div class="col-md-12 pl-0">
                  <div style="width: 100%;height:100%;">
                    <img class="img-fluid" src="img/parcaquarius/ALAS2.jpg" alt="" style="width:100%;height:235px;">
                  </div>
                 
                </div>
                
              </div>
              
            </div> 
          </div> -->

          <!-- <div class="col-sm-12 col-md-12 mt-1">
            
            <div class="d-flex flex-row flex-wrap justify-content-center">
              <div class="col-sm-12 col-lg-4 pl-5 pr-0"><img class="img-fluid" src="img/parcaquarius/planta2.jpg" alt="" style="width: 100%; height:240px;" ></div>
              <div class="col-sm-12 col-lg-4 pr-0 pl-1"><img class="img-fluid" src="img/parcaquarius/planta3.jpg" alt="" style="width: 100%; height:240px;"></div>
              <div class="col-sm-12 col-lg-4 pl-1"><img class="img-fluid" src="img/parcaquarius/garagem.jpg" alt="" style="width: 100%; height:240px;" ></div>
            </div> -->
          <!-- fim col-md-12 -->
          </div>
        </div>
      </div>
    </section>
    <!-- FIM ALBUM -->
</div>
<!-- fim Parc Aquarius -->




<!-- Começo Manhattan -->
<!-- imagem carousel -->
<div class="edificio" style=" margin-top: 100px !important;
  margin-bottom: 100px !important;">
<div id="carouselExampleIndicators" class="carousel slide " data-ride="carousel">
  <ol class="carousel-indicators">
    <li data-target="#carouselExampleIndicators" data-slide-to="0" class="active"></li>
    <li data-target="#carouselExampleIndicators" data-slide-to="1"></li>
    <li data-target="#carouselExampleIndicators" data-slide-to="2"></li>
    <li data-target="#carouselExampleIndicators" data-slide-to="3"></li>
    <li data-target="#carouselExampleIndicators" data-slide-to="
    4"></li>
  </ol>
  <div class="carousel-inner">
    <div class="carousel-item active">
      <img src="img/manhattan/slide1.jpg" class=" " alt="..." style="margin-left:290px;height:600px;width:auto;">
   <!-- w-100 -->
    </div>
    <div class="carousel-item">
      <img src="img/manhattan/slide2.jpg" class=" " alt="..." style="margin-left:290px;height:600px;width:auto;">
     <!-- w-100  -->
    </div>
    <div class="carousel-item">
      <img src="img/manhattan/slide3.jpg" class=" " alt="..." style="margin-left:290px;height:600px;width:auto;">
     <!-- w-100 d-block  -->
    </div>
    <div class="carousel-item">
      <img src="img/manhattan/slide4.jpg" class=" " alt="..." style="margin-left:290px;height:600px;width:auto;">
     <!-- w-100 d-block  -->
    </div>
    <div class="carousel-item">
      <img src="img/manhattan/slide5.jpg" class=" " alt="..." style="margin-left:290px;height:600px;width:auto;">
     <!-- w-100 d-block  -->
    </div>
  </div>
  <a class="carousel-control-prev" href="#carouselExampleIndicators" role="button" data-slide="prev">
    <span class="carousel-control-prev-icon" aria-hidden="true"></span>
    <span class="sr-only">Previous</span>
  </a>
  <a class="carousel-control-next" href="#carouselExampleIndicators" role="button" data-slide="next">
    <span class="carousel-control-next-icon" aria-hidden="true"></span>
    <span class="sr-only">Next</span>
  </a>
</div>


    <!-- fim imagem carousel -->

    <div class="col-md-12 row" style="margin-top:40px;">
    <div class="col-md-2"></div>    
    <!--começo texto -->
    <div class="col-md-6" style="padding-right:40px;">
    <div class="text-center" style="padding-top:20px;padding-bottom:20px;">
            <h2 class="" style="padding-bottom:20px;">Ed. Manhattan - Pronto para morar</h2>
            <img class="text-center" src="img/divider_line_big.svg">
        </div>
        <P style="padding-bottom:20px; margin-top:10px;">Ed. Manhattan
        </P>

        <ul>
        <li style=" margin-top:10px;">
        92m2</li>
        
        <li>3 qtos / 1 suite / 2 vagas</li>
        <li>Lazer</li>
        <li>Elevador</li>
        <li class="padding-bottom:20px;">Agua e gas individuais
        </li></ul>
        
        <!-- <h6 >Office Hours:</h6> -->
        <p style="color: #475764;">- Manhattan (pronto - 100% vendido)</p>
    </div>
    <!--fim texto  -->
    <!-- form -->
    <div class="col-md-4" style="margin-left:10px; margin-bottom:50px; margin-top:1px;">
      
    </div>
    <!-- fim form -->
    </div>
    <!-- fim conteudo  -->


    <!-- ALBUM -->
    <!-- <section class="p-0 pt-5">
      <div class="container-fluid">
   
        <div class="col-md-12 text-center rent" style=" padding-right:60px;"> 
          <h2>Conheça Nossos Empreendimentos</h2>
          <img src="img/divider_line_big.svg">
          <div class="paragraph d-flex flex-row justify-content-center">
            <p>
            
            </p>
          </div>
      
          <div class="col-sm-12 col-md-12">
         
            <div class="d-flex flex-row flex-wrap justify-content-center">
              <div class="col-sm-12 col-md-8 pl-5 pr-0">
                <div style="width: 100%;height:100%;">
                
                  <img class="img-fluid" src="img/manhattan/planta1.jpg" style="width:100%;height:480px;max-height:475px;">
                </div>
              </div> 
              <div class="col-sm-12 col-md-4 pl-1 pr-0"> 
                <div class="col-sm-12 col-md-12 pl-0">
                  <div style="width: 100%;height:100%;">
                  
                    <img class="img-fluid" src="img/manhattan/lazer.jpg" alt="" style="width:100%;height:235px;">
                  </div>
                </div>
                <div style="margin-top:4px; "></div>
           
                <div class="col-md-12 pl-0">
                  <div style="width: 100%;height:100%;">
                    <img class="img-fluid" src="img/manhattan/ALAS2.jpg" alt="" style="width:100%;height:235px;">
                  </div>
                 
                </div>
                
              </div>
            
            </div> 
          </div>

          <div class="col-sm-12 col-md-12 mt-1">
           
            <div class="d-flex flex-row flex-wrap justify-content-center">
              <div class="col-sm-12 col-lg-4 pl-5 pr-0"><img class="img-fluid" src="img/manhattan/planta2.jpg" alt="" style="width: 100%; height:240px;" ></div>
              <div class="col-sm-12 col-lg-4 pr-0 pl-1"><img class="img-fluid" src="img/manhattan/planta3.jpg" alt="" style="width: 100%; height:240px;"></div>
              <div class="col-sm-12 col-lg-4 pl-1"><img class="img-fluid" src="img/manhattan/garagem.jpg" alt="" style="width: 100%; height:240px;" ></div>
            </div>
        
          </div>
        </div>
      </div>
    </section> -->
    <!-- FIM ALBUM -->
</div>
<!-- fim Manhattan -->

<!-- Começo Jardim -->
<!-- imagem carousel -->
<div class="edificio" style=" margin-top: 100px !important;
  margin-bottom: 100px !important;">
<div id="carouselExampleIndicators" class="carousel slide " data-ride="carousel">
  <ol class="carousel-indicators">
    <li data-target="#carouselExampleIndicators" data-slide-to="0" class="active"></li>
    <li data-target="#carouselExampleIndicators" data-slide-to="1"></li>
    <li data-target="#carouselExampleIndicators" data-slide-to="2"></li>
    <li data-target="#carouselExampleIndicators" data-slide-to="3"></li>
    <li data-target="#carouselExampleIndicators" data-slide-to="
    4"></li>
  </ol>
  <div class="carousel-inner">
    <div class="carousel-item active">
      <img src="img/jardim/slide1.jpg" class=" " alt="..." style="margin-left:290px;height:600px;width:auto;">
   <!-- w-100 -->
    </div>
    <div class="carousel-item">
      <img src="img/jardim/slide2.jpg" class=" " alt="..." style="margin-left:290px;height:600px;width:auto;">
     <!-- w-100  -->
    </div>
    <div class="carousel-item">
      <img src="img/jardim/slide3.jpg" class=" " alt="..." style="margin-left:290px;height:600px;width:auto;">
     <!-- w-100 d-block  -->
    </div>
    <div class="carousel-item">
      <img src="img/jardim/slide4.jpg" class=" " alt="..." style="margin-left:290px;height:600px;width:auto;">
     <!-- w-100 d-block  -->
    </div>
    <div class="carousel-item">
      <img src="img/jardim/slide5.jpg" class=" " alt="..." style="margin-left:290px;height:600px;width:auto;">
     <!-- w-100 d-block  -->
    </div>
  </div>
  <a class="carousel-control-prev" href="#carouselExampleIndicators" role="button" data-slide="prev">
    <span class="carousel-control-prev-icon" aria-hidden="true"></span>
    <span class="sr-only">Previous</span>
  </a>
  <a class="carousel-control-next" href="#carouselExampleIndicators" role="button" data-slide="next">
    <span class="carousel-control-next-icon" aria-hidden="true"></span>
    <span class="sr-only">Next</span>
  </a>
</div>


    <!-- fim imagem carousel -->

    <div class="col-md-12 row" style="margin-top:40px;">
    <div class="col-md-2"></div>    
    <!--começo texto -->
    <div class="col-md-6" style="padding-right:40px;">
    <div class="text-center" style="padding-top:20px;padding-bottom:20px;">
            <h2 class="" style="padding-bottom:20px;">Ed. Jardim - Pronto para morar</h2>
            <img class="text-center" src="img/divider_line_big.svg">
        </div>
        <P style="padding-bottom:20px; margin-top:10px;">Ed. Jardins</P>

        <ul>
        <li style=" margin-top:10px;">
        96m2</li>
        <li>3 qtos / 1 suite / 2 vagas</li>  
        <li>Espaço gourmet</li>  
        <li>Elevador</li> 
        <li class="padding-bottom:20px;"> Agua e gas individuais </li>
        </ul>
        <!-- <h6 >Office Hours:</h6> -->
        <p style="color: #475764;">- Jardins (pronto - 100% vendido)</p>
    </div>
    <!--fim texto  -->
    <!-- form -->
    <div class="col-md-4" style="margin-left:10px; margin-bottom:50px; margin-top:1px;">
      
    </div>
    <!-- fim form -->
    </div>
    <!-- fim conteudo  -->


    <!-- ALBUM -->
    <!-- <section class="p-0 pt-5">
      <div class="container-fluid">
        
        <div class="col-md-12 text-center rent" style=" padding-right:60px;"> 
          <h2>Conheça Nossos Empreendimentos</h2>
          <img src="img/divider_line_big.svg">
          <div class="paragraph d-flex flex-row justify-content-center">
            <p>
             
            </p>
          </div>
          
          <div class="col-sm-12 col-md-12">
          
            <div class="d-flex flex-row flex-wrap justify-content-center">
              <div class="col-sm-12 col-md-8 pl-5 pr-0">
                <div style="width: 100%;height:100%;">
                
                  <img class="img-fluid" src="img/jardim/planta1.jpg" style="width:100%;height:480px;max-height:475px;">
                </div>
              </div> 
              <div class="col-sm-12 col-md-4 pl-1 pr-0"> 
                <div class="col-sm-12 col-md-12 pl-0">
                  <div style="width: 100%;height:100%;">
                   
                    <img class="img-fluid" src="img/jardim/lazer.jpg" alt="" style="width:100%;height:235px;">
                  </div>
                </div>
                <div style="margin-top:4px; "></div>
               
                <div class="col-md-12 pl-0">
                  <div style="width: 100%;height:100%;">
                    <img class="img-fluid" src="img/jardim/ALAS2.jpg" alt="" style="width:100%;height:235px;">
                  </div>
                   
                </div>
                
              </div>
              
            </div> 
          </div>

          <div class="col-sm-12 col-md-12 mt-1">
            
            <div class="d-flex flex-row flex-wrap justify-content-center">
              <div class="col-sm-12 col-lg-4 pl-5 pr-0"><img class="img-fluid" src="img/jardim/planta2.jpg" alt="" style="width: 100%; height:240px;" ></div>
              <div class="col-sm-12 col-lg-4 pr-0 pl-1"><img class="img-fluid" src="img/jardim/planta3.jpg" alt="" style="width: 100%; height:240px;"></div>
              <div class="col-sm-12 col-lg-4 pl-1"><img class="img-fluid" src="img/jardim/garagem.jpg" alt="" style="width: 100%; height:240px;" ></div>
            </div>
         
          </div>
        </div>
      </div>
    </section> -->
    
</div>
<!-- fim Jardim -->